/8\.8\.4\.(25[0-5]|2[0-4][0-9]|1[0-9]{2}|[1-9]?[0-9])/
/8\.8\.8\.(25[0-5]|2[0-4][0-9]|1[0-9]{2}|[1-9]?[0-9])/
/8\.34\.(22[0-3]|21[0-9]|20[89])\.(25[0-5]|2[0-4][0-9]|1[0-9]{2}|[1-9]?[0-9])/
/8\.35\.(20[0-7]|19[2-9])\.(25[0-5]|2[0-4][0-9]|1[0-9]{2}|[1-9]?[0-9])/
/23\.236\.(6[0-3]|5[0-9]|4[89])\.(25[0-5]|2[0-4][0-9]|1[0-9]{2}|[1-9]?[0-9])/
/23\.251\.(1[3-5][0-9]|12[89])\.(25[0-5]|2[0-4][0-9]|1[0-9]{2}|[1-9]?[0-9])/
/34\.[01](\.(25[0-5]|2[0-4][0-9]|1[0-9]{2}|[1-9]?[0-9])){2}/
/34\.2(\.(25[0-5]|2[0-4][0-9]|1[0-9]{2}|[1-9]?[0-9])){2}/
/34\.3\.[01]\.(25[0-5]|2[0-4][0-9]|1[0-9]{2}|[1-9]?[0-9])/
/34\.3\.3\.(25[0-5]|2[0-4][0-9]|1[0-9]{2}|[1-9]?[0-9])/
/34\.3\.4\.(25[0-5]|2[0-4][0-9]|1[0-9]{2}|[1-9]?[0-9])/
/34\.3\.(1[0-5]|[89])\.(25[0-5]|2[0-4][0-9]|1[0-9]{2}|[1-9]?[0-9])/
/34\.3\.(3[01]|2[0-9]|1[6-9])\.(25[0-5]|2[0-4][0-9]|1[0-9]{2}|[1-9]?[0-9])/
/34\.3\.(6[0-3]|[45][0-9]|3[2-9])\.(25[0-5]|2[0-4][0-9]|1[0-9]{2}|[1-9]?[0-9])/
/34\.3\.(12[0-7]|1[01][0-9]|[7-9][0-9]|6[4-9])\.(25[0-5]|2[0-4][0-9]|1[0-9]{2}|[1-9]?[0-9])/
/34\.[4-7](\.(25[0-5]|2[0-4][0-9]|1[0-9]{2}|[1-9]?[0-9])){2}/
/34\.(1[0-5]|[89])(\.(25[0-5]|2[0-4][0-9]|1[0-9]{2}|[1-9]?[0-9])){2}/
/34\.(3[01]|2[0-9]|1[6-9])(\.(25[0-5]|2[0-4][0-9]|1[0-9]{2}|[1-9]?[0-9])){2}/
/34\.(6[0-3]|[45][0-9]|3[2-9])(\.(25[0-5]|2[0-4][0-9]|1[0-9]{2}|[1-9]?[0-9])){2}/
/34\.(12[0-7]|1[01][0-9]|[7-9][0-9]|6[4-9])(\.(25[0-5]|2[0-4][0-9]|1[0-9]{2}|[1-9]?[0-9])){2}/
/34\.(19[01]|1[3-8][0-9]|12[89])(\.(25[0-5]|2[0-4][0-9]|1[0-9]{2}|[1-9]?[0-9])){2}/
/35\.(19[01]|18[4-9])(\.(25[0-5]|2[0-4][0-9]|1[0-9]{2}|[1-9]?[0-9])){2}/
/35\.19[2-5](\.(25[0-5]|2[0-4][0-9]|1[0-9]{2}|[1-9]?[0-9])){2}/
/35\.19[67](\.(25[0-5]|2[0-4][0-9]|1[0-9]{2}|[1-9]?[0-9])){2}/
/35\.198(\.(25[0-5]|2[0-4][0-9]|1[0-9]{2}|[1-9]?[0-9])){2}/
/35\.199\.(12[0-7]|1[01][0-9]|[1-9]?[0-9])\.(25[0-5]|2[0-4][0-9]|1[0-9]{2}|[1-9]?[0-9])/
/35\.199\.(19[01]|1[3-8][0-9]|12[89])\.(25[0-5]|2[0-4][0-9]|1[0-9]{2}|[1-9]?[0-9])/
/35\.20[0-7](\.(25[0-5]|2[0-4][0-9]|1[0-9]{2}|[1-9]?[0-9])){2}/
/35\.(22[0-3]|21[0-9]|20[89])(\.(25[0-5]|2[0-4][0-9]|1[0-9]{2}|[1-9]?[0-9])){2}/
/35\.(23[0-9]|22[4-9])(\.(25[0-5]|2[0-4][0-9]|1[0-9]{2}|[1-9]?[0-9])){2}/
/35\.24[0-7](\.(25[0-5]|2[0-4][0-9]|1[0-9]{2}|[1-9]?[0-9])){2}/
/57\.140\.(25[0-5]|2[0-4][0-9]|19[2-9])\.(25[0-5]|2[0-4][0-9]|1[0-9]{2}|[1-9]?[0-9])/
/64\.15\.(12[0-7]|11[2-9])\.(25[0-5]|2[0-4][0-9]|1[0-9]{2}|[1-9]?[0-9])/
/64\.233\.(19[01]|1[6-8][0-9])\.(25[0-5]|2[0-4][0-9]|1[0-9]{2}|[1-9]?[0-9])/
/66\.22\.22[89]\.(25[0-5]|2[0-4][0-9]|1[0-9]{2}|[1-9]?[0-9])/
/66\.102\.(1[0-5]|[0-9])\.(25[0-5]|2[0-4][0-9]|1[0-9]{2}|[1-9]?[0-9])/
/66\.249\.(9[0-5]|[78][0-9]|6[4-9])\.(25[0-5]|2[0-4][0-9]|1[0-9]{2}|[1-9]?[0-9])/
/70\.32\.(1[3-5][0-9]|12[89])\.(25[0-5]|2[0-4][0-9]|1[0-9]{2}|[1-9]?[0-9])/
/72\.14\.(25[0-5]|2[0-4][0-9]|19[2-9])\.(25[0-5]|2[0-4][0-9]|1[0-9]{2}|[1-9]?[0-9])/
/74\.125(\.(25[0-5]|2[0-4][0-9]|1[0-9]{2}|[1-9]?[0-9])){2}/
/104\.15[45](\.(25[0-5]|2[0-4][0-9]|1[0-9]{2}|[1-9]?[0-9])){2}/
/104\.19[6-9](\.(25[0-5]|2[0-4][0-9]|1[0-9]{2}|[1-9]?[0-9])){2}/
/104\.237\.(19[01]|1[6-8][0-9])\.(25[0-5]|2[0-4][0-9]|1[0-9]{2}|[1-9]?[0-9])/
/107\.167\.(19[01]|1[6-8][0-9])\.(25[0-5]|2[0-4][0-9]|1[0-9]{2}|[1-9]?[0-9])/
/107\.178\.(25[0-5]|2[0-4][0-9]|19[2-9])\.(25[0-5]|2[0-4][0-9]|1[0-9]{2}|[1-9]?[0-9])/
/108\.59\.(9[0-5]|8[0-9])\.(25[0-5]|2[0-4][0-9]|1[0-9]{2}|[1-9]?[0-9])/
/108\.170\.(25[0-5]|2[0-4][0-9]|19[2-9])\.(25[0-5]|2[0-4][0-9]|1[0-9]{2}|[1-9]?[0-9])/
/108\.177\.(12[0-7]|1[01][0-9]|[1-9]?[0-9])\.(25[0-5]|2[0-4][0-9]|1[0-9]{2}|[1-9]?[0-9])/
/130\.211(\.(25[0-5]|2[0-4][0-9]|1[0-9]{2}|[1-9]?[0-9])){2}/
/136\.22\.(17[0-5]|16[0-9])\.(25[0-5]|2[0-4][0-9]|1[0-9]{2}|[1-9]?[0-9])/
/136\.22\.(18[0-3]|17[6-9])\.(25[0-5]|2[0-4][0-9]|1[0-9]{2}|[1-9]?[0-9])/
/136\.22\.18[45]\.(25[0-5]|2[0-4][0-9]|1[0-9]{2}|[1-9]?[0-9])/
/136\.22\.186\.(25[0-5]|2[0-4][0-9]|1[0-9]{2}|[1-9]?[0-9])/
/136\.12[45](\.(25[0-5]|2[0-4][0-9]|1[0-9]{2}|[1-9]?[0-9])){2}/
/142\.25[01](\.(25[0-5]|2[0-4][0-9]|1[0-9]{2}|[1-9]?[0-9])){2}/
/146\.148\.(12[0-7]|1[01][0-9]|[1-9]?[0-9])\.(25[0-5]|2[0-4][0-9]|1[0-9]{2}|[1-9]?[0-9])/
/152\.65\.(21[01]|20[89])\.(25[0-5]|2[0-4][0-9]|1[0-9]{2}|[1-9]?[0-9])/
/152\.65\.21[45]\.(25[0-5]|2[0-4][0-9]|1[0-9]{2}|[1-9]?[0-9])/
/152\.65\.21[89]\.(25[0-5]|2[0-4][0-9]|1[0-9]{2}|[1-9]?[0-9])/
/152\.65\.22[23]\.(25[0-5]|2[0-4][0-9]|1[0-9]{2}|[1-9]?[0-9])/
/152\.65\.(25[0-5]|2[34][0-9]|22[4-9])\.(25[0-5]|2[0-4][0-9]|1[0-9]{2}|[1-9]?[0-9])/
/162\.120\.(25[0-5]|2[0-4][0-9]|1[3-9][0-9]|12[89])\.(25[0-5]|2[0-4][0-9]|1[0-9]{2}|[1-9]?[0-9])/
/162\.216\.(15[01]|14[89])\.(25[0-5]|2[0-4][0-9]|1[0-9]{2}|[1-9]?[0-9])/
/162\.222\.(18[0-3]|17[6-9])\.(25[0-5]|2[0-4][0-9]|1[0-9]{2}|[1-9]?[0-9])/
/172\.110\.3[2-9]\.(25[0-5]|2[0-4][0-9]|1[0-9]{2}|[1-9]?[0-9])/
/172\.217(\.(25[0-5]|2[0-4][0-9]|1[0-9]{2}|[1-9]?[0-9])){2}/
/172\.253(\.(25[0-5]|2[0-4][0-9]|1[0-9]{2}|[1-9]?[0-9])){2}/
/173\.194(\.(25[0-5]|2[0-4][0-9]|1[0-9]{2}|[1-9]?[0-9])){2}/
/173\.255\.(12[0-7]|11[2-9])\.(25[0-5]|2[0-4][0-9]|1[0-9]{2}|[1-9]?[0-9])/
/192\.158\.(3[01]|2[89])\.(25[0-5]|2[0-4][0-9]|1[0-9]{2}|[1-9]?[0-9])/
/192\.17[89](\.(25[0-5]|2[0-4][0-9]|1[0-9]{2}|[1-9]?[0-9])){2}/
/193\.186\.4\.(25[0-5]|2[0-4][0-9]|1[0-9]{2}|[1-9]?[0-9])/
/199\.36\.15[45]\.(25[0-5]|2[0-4][0-9]|1[0-9]{2}|[1-9]?[0-9])/
/199\.36\.156\.(25[0-5]|2[0-4][0-9]|1[0-9]{2}|[1-9]?[0-9])/
/199\.192\.11[2-5]\.(25[0-5]|2[0-4][0-9]|1[0-9]{2}|[1-9]?[0-9])/
/199\.223\.23[2-9]\.(25[0-5]|2[0-4][0-9]|1[0-9]{2}|[1-9]?[0-9])/
/207\.223\.(17[0-5]|16[0-9])\.(25[0-5]|2[0-4][0-9]|1[0-9]{2}|[1-9]?[0-9])/
/208\.65\.15[2-5]\.(25[0-5]|2[0-4][0-9]|1[0-9]{2}|[1-9]?[0-9])/
/208\.68\.(11[01]|10[89])\.(25[0-5]|2[0-4][0-9]|1[0-9]{2}|[1-9]?[0-9])/
/208\.81\.(19[01]|18[89])\.(25[0-5]|2[0-4][0-9]|1[0-9]{2}|[1-9]?[0-9])/
/208\.117\.(25[0-5]|2[34][0-9]|22[4-9])\.(25[0-5]|2[0-4][0-9]|1[0-9]{2}|[1-9]?[0-9])/
/209\.85\.(25[0-5]|2[0-4][0-9]|1[3-9][0-9]|12[89])\.(25[0-5]|2[0-4][0-9]|1[0-9]{2}|[1-9]?[0-9])/
/216\.58\.(22[0-3]|2[01][0-9]|19[2-9])\.(25[0-5]|2[0-4][0-9]|1[0-9]{2}|[1-9]?[0-9])/
/216\.73\.(9[0-5]|8[0-9])\.(25[0-5]|2[0-4][0-9]|1[0-9]{2}|[1-9]?[0-9])/
/216\.239\.(6[0-3]|[45][0-9]|3[2-9])\.(25[0-5]|2[0-4][0-9]|1[0-9]{2}|[1-9]?[0-9])/
